…
``` r
s1 %>%
  group_by(term) %>%
  slice_max(order_by = n,n=5)
```

    ## # A tibble: 26 × 3
    ## # Groups:   term [5]
    ##    term            word            n
    ##    <chr>           <chr>       <int>
    ##  1 covid           covid        7275
    ##  2 covid           patients     2293
    ##  3 covid           disease       943
    ##  4 covid           pandemic      800
    ##  5 covid           coronavirus   647
    ##  6 covid           health        647
    ##  7 cystic fibrosis fibrosis      867
    ##  8 cystic fibrosis cystic        862
    ##  9 cystic fibrosis cf            625
    ## 10 cystic fibrosis patients      586
    ## # … with 16 more rows
…
``` r
pubmed %>%
  unnest_tokens(word, abstract) %>%
  group_by(term)%>%
  count(word, term) %>%
  bind_tf_idf(word, term, n)%>%
  arrange(desc(tf_idf)) %>%
  slice_max(order_by = tf_idf,n=5)
```

    ## # A tibble: 25 × 6
    ## # Groups:   term [5]
    ##    term            word            n      tf   idf  tf_idf
    ##    <chr>           <chr>       <int>   <dbl> <dbl>   <dbl>
    ##  1 covid           covid        7275 0.0371  1.61  0.0597 
    ##  2 covid           pandemic      800 0.00408 1.61  0.00657
    ##  3 covid           coronavirus   647 0.00330 1.61  0.00531
    ##  4 covid           sars          372 0.00190 1.61  0.00305
    ##  5 covid           cov           334 0.00170 1.61  0.00274
    ##  6 cystic fibrosis cf            625 0.0127  0.916 0.0117 
    ##  7 cystic fibrosis fibrosis      867 0.0176  0.511 0.00901
    ##  8 cystic fibrosis cystic        862 0.0175  0.511 0.00896
    ##  9 cystic fibrosis cftr           86 0.00175 1.61  0.00282
    ## 10 cystic fibrosis sweat          83 0.00169 1.61  0.00272
    ## # … with 15 more rows
